FinalProj
…
autism$gender = as.factor(autism$gender)
#Jaundice
count(autism, jundice)

## # A tibble: 2 x 2
##   jundice     n
##   <chr>   <int>
## 1 no        635
## 2 yes        69

autism$jundice = as.factor(autism$jundice)
count(autism, country_of_residence)

## # A tibble: 67 x 2
##    country_of_residence       n
##    <chr>                  <int>
##  1 'Costa Rica'               1
##  2 'Czech Republic'           1
##  3 'Hong Kong'                1
##  4 'New Zealand'             81
##  5 'Saudi Arabia'             4
##  6 'Sierra Leone'             1
##  7 'South Africa'             2
##  8 'Sri Lanka'               14
##  9 'United Arab Emirates'    82
## 10 'United Kingdom'          77
## # ... with 57 more rows
…
#lastly we will handle the ethnicity column
autism[is.na(autism$ethnicity),]

## # A tibble: 95 x 21
##    A1_Score A2_Score A3_Score A4_Score A5_Score A6_Score A7_Score A8_Score
##    <fct>    <fct>    <fct>    <fct>    <fct>    <fct>    <fct>    <fct>   
##  1 1        0        0        0        0        0        0        1       
##  2 0        1        1        1        1        1        0        0       
##  3 1        0        0        0        0        0        1        1       
##  4 1        0        0        0        0        0        1        1       
##  5 0        0        0        0        0        0        1        1       
##  6 0        1        1        1        0        0        0        0       
##  7 1        1        1        1        0        0        0        1       
##  8 0        1        1        0        0        0        0        1       
##  9 0        0        0        0        0        0        0        0       
## 10 1        1        0        0        0        0        0        0       
## # ... with 85 more rows, and 13 more variables: A9_Score <fct>,
## #   A10_Score <fct>, age <dbl>, gender <fct>, ethnicity <fct>, jundice <fct>,
## #   austim <fct>, country_of_residence <fct>, used_app_before <fct>,
## #   result <dbl>, age_cat <chr>, relation <fct>, `Class/ASD` <fct>
…
## [1] 0

autism$age = age_noNA
#all mising values were handled
sum(is.na(autism))

## [1] 0

Outliers

#get all numerical variables
numeric_cols = sapply(autism, is.numeric)
autism[,numeric_cols]

## # A tibble: 704 x 2
##      age result
##    <dbl>  <dbl>
##  1    26      6
##  2    24      5
##  3    27      8
##  4    35      6
##  5    40      2
##  6    36      9
##  7    17      2
##  8    64      5
##  9    29      6
## 10    17      8
## # ... with 694 more rows
…
